module github.com/ddelnano/terraform-provider-mikrotik

go 1.12

require (
	github.com/apparentlymart/go-cidr v1.0.0 // indirect
	github.com/blang/semver v3.5.1+incompatible // indirect
	github.com/go-routeros/routeros v0.0.0-20190719172022-0819accf8221
	github.com/hashicorp/go-getter v1.1.0 // indirect
	github.com/hashicorp/go-hclog v0.7.0 // indirect
	github.com/hashicorp/go-plugin v0.0.0-20190220160451-3f118e8ee104 // indirect
	github.com/hashicorp/go-uuid v1.0.1 // indirect
	github.com/hashicorp/hcl v1.0.0 // indirect
	github.com/hashicorp/hcl2 v0.0.0-20190226234159-7e26f2f34612 // indirect
	github.com/hashicorp/hil v0.0.0-20190212132231-97b3a9cdfa93 // indirect
	github.com/hashicorp/terraform v0.11.11
	github.com/mitchellh/cli v1.0.0 // indirect
	github.com/mitchellh/copystructure v1.0.0 // indirect
	github.com/mitchellh/go-homedir v1.1.0 // indirect
	github.com/mitchellh/hashstructure v1.0.0 // indirect
	github.com/zclconf/go-cty v0.0.0-20190212192503-19dda139b164 // indirect
	golang.org/x/crypto v0.0.0-20190228161510-8dd112bcdc25 // indirect
	golang.org/x/net v0.0.0-20190228165749-92fc7df08ae7 // indirect
)
